module gitlab.com/mathq10/ps-backend-Joao-Holanda-Matheus-Queiros

go 1.22.4

require (
	github.com/golang/snappy v0.0.4 // indirect
	github.com/gorilla/mux v1.8.1
	github.com/klauspost/compress v1.13.6 // indirect
	github.com/montanaflynn/stats v0.7.1 // indirect
	github.com/xdg-go/pbkdf2 v1.0.0 // indirect
	github.com/xdg-go/scram v1.1.2 // indirect
	github.com/xdg-go/stringprep v1.0.4 // indirect
	github.com/youmark/pkcs8 v0.0.0-20181117223130-1be2e3e5546d // indirect
	go.mongodb.org/mongo-driver v1.16.0
	golang.org/x/crypto v0.22.0 // indirect
	golang.org/x/sync v0.7.0 // indirect
	golang.org/x/text v0.14.0 // indirect
)
